E: 1058.226828 0003 002f 0
E: 1058.226828 0003 0030 220
E: 1058.226828 0003 0031 0
E: 1058.226828 0003 0032 0
E: 1058.226828 0003 0033 0
E: 1058.226828 0003 0034 0
E: 1058.226828 0003 0035 679
E: 1058.226828 0003 0036 215
E: 1058.226828 0003 0037 0
E: 1058.226828 0003 0038 0
E: 1058.226828 0003 0039 446
E: 1058.226828 0003 003a 45
E: 1058.226828 0003 003b 0
E: 1058.226828 0003 002f 1
E: 1058.226828 0003 0039 -1
E: 1058.226828 0003 002f 2
E: 1058.226828 0003 0039 -1
E: 1058.226828 0003 002f 3
E: 1058.226828 0003 0039 -1
E: 1058.226828 0003 002f 4
E: 1058.226828 0003 0039 -1
E: 1058.226828 0003 002f 5
E: 1058.226828 0003 0039 -1
E: 1058.226828 0003 002f 6
E: 1058.226828 0003 0039 -1
E: 1058.226828 0003 002f 7
E: 1058.226828 0003 0039 -1
E: 1058.226828 0003 002f 8
E: 1058.226828 0003 0039 -1
E: 1058.226828 0003 002f 9
E: 1058.226828 0003 0039 -1
E: 1058.226828 0003 002f 0
E: 1058.226828 0001 0145 1
E: 1058.226828 0001 014a 1
E: 1058.226828 0000 0000 0
E: 1058.232405 0003 003a 46
E: 1058.232406 0003 0018 46
E: 1058.232406 0000 0000 0
E: 1058.243504 0003 0036 216
E: 1058.243505 0003 003a 47
E: 1058.243505 0003 0001 216
E: 1058.243506 0003 0018 47
E: 1058.243506 0000 0000 0
E: 1058.254618 0003 003a 45
E: 1058.254619 0003 0018 45
E: 1058.254619 0000 0000 0
E: 1058.260169 0003 003a 49
E: 1058.260170 0003 0018 49
E: 1058.260170 0000 0000 0
E: 1058.265734 0003 003a 46
E: 1058.265735 0003 0018 46
E: 1058.265735 0000 0000 0
E: 1058.271314 0003 003a 44
E: 1058.271315 0003 0018 44
E: 1058.271315 0000 0000 0
E: 1058.276891 0003 003a 45
E: 1058.276892 0003 0018 45
E: 1058.276892 0000 0000 0
E: 1058.282470 0003 0035 678
E: 1058.282470 0003 0036 217
E: 1058.282471 0003 0000 678
E: 1058.282471 0003 0001 217
E: 1058.282471 0000 0000 0
E: 1058.288004 0003 003a 44
E: 1058.288005 0003 0018 44
E: 1058.288005 0000 0000 0
E: 1058.293595 0003 0035 677
E: 1058.293596 0003 0036 218
E: 1058.293596 0003 003a 43
E: 1058.293596 0003 0030 180
E: 1058.293596 0003 0000 677
E: 1058.293597 0003 0001 218
E: 1058.293597 0003 0018 43
E: 1058.293597 0000 0000 0
E: 1058.299118 0003 0035 676
E: 1058.299119 0003 0036 219
E: 1058.299119 0003 003a 44
E: 1058.299120 0003 0000 676
E: 1058.299120 0003 0001 219
E: 1058.299120 0003 0018 44
E: 1058.299121 0000 0000 0
E: 1058.304698 0003 0036 220
E: 1058.304698 0003 003a 46
E: 1058.304699 0003 0001 220
E: 1058.304699 0003 0018 46
E: 1058.304700 0000 0000 0
E: 1058.310217 0003 0035 674
E: 1058.310218 0003 0036 222
E: 1058.310218 0003 003a 43
E: 1058.310219 0003 0000 674
E: 1058.310220 0003 0001 222
E: 1058.310221 0003 0018 43
E: 1058.310221 0000 0000 0
E: 1058.315844 0003 0035 673
E: 1058.315845 0003 0036 224
E: 1058.315846 0003 0000 673
E: 1058.315846 0003 0001 224
E: 1058.315847 0000 0000 0
E: 1058.321318 0003 0035 671
E: 1058.321319 0003 0036 225
E: 1058.321319 0003 003a 44
E: 1058.321319 0003 0000 671
E: 1058.321320 0003 0001 225
E: 1058.321320 0003 0018 44
E: 1058.321320 0000 0000 0
E: 1058.326892 0003 0035 669
E: 1058.326892 0003 0036 228
E: 1058.326893 0003 003a 47
E: 1058.326893 0003 0000 669
E: 1058.326893 0003 0001 228
E: 1058.326893 0003 0018 47
E: 1058.326894 0000 0000 0
E: 1058.332423 0003 0035 668
E: 1058.332424 0003 0036 229
E: 1058.332424 0003 003a 45
E: 1058.332425 0003 0000 668
E: 1058.332425 0003 0001 229
E: 1058.332425 0003 0018 45
E: 1058.332425 0000 0000 0
E: 1058.337970 0003 0035 666
E: 1058.337971 0003 0036 230
E: 1058.337971 0003 003a 46
E: 1058.337971 0003 0000 666
E: 1058.337971 0003 0001 230
E: 1058.337972 0003 0018 46
E: 1058.337972 0000 0000 0
E: 1058.343499 0003 0035 665
E: 1058.343499 0003 0036 231
E: 1058.343500 0003 003a 45
E: 1058.343500 0003 0000 665
E: 1058.343500 0003 0001 231
E: 1058.343500 0003 0018 45
E: 1058.343501 0000 0000 0
E: 1058.349010 0003 003a 44
E: 1058.349011 0003 0018 44
E: 1058.349012 0000 0000 0
E: 1058.354600 0003 0035 664
E: 1058.354601 0003 0036 232
E: 1058.354601 0003 003a 46
E: 1058.354601 0003 0000 664
E: 1058.354601 0003 0001 232
E: 1058.354602 0003 0018 46
E: 1058.354602 0000 0000 0
E: 1058.360111 0003 0035 663
E: 1058.360111 0003 0036 233
E: 1058.360111 0003 003a 48
E: 1058.360112 0003 0000 663
E: 1058.360112 0003 0001 233
E: 1058.360112 0003 0018 48
E: 1058.360112 0000 0000 0
E: 1058.365633 0003 003a 45
E: 1058.365634 0003 0018 45
E: 1058.365635 0000 0000 0
E: 1058.371214 0003 0035 662
E: 1058.371215 0003 0036 234
E: 1058.371215 0003 003a 47
E: 1058.371215 0003 0000 662
E: 1058.371215 0003 0001 234
E: 1058.371215 0003 0018 47
E: 1058.371216 0000 0000 0
E: 1058.376708 0003 003a 50
E: 1058.376709 0003 0018 50
E: 1058.376709 0000 0000 0
E: 1058.382217 0003 0036 235
E: 1058.382218 0003 003a 49
E: 1058.382219 0003 0001 235
E: 1058.382219 0003 0018 49
E: 1058.382219 0000 0000 0
E: 1058.387799 0003 003a 46
E: 1058.387799 0003 0018 46
E: 1058.387799 0000 0000 0
E: 1058.398828 0003 0036 236
E: 1058.398828 0003 003a 50
E: 1058.398829 0003 0001 236
E: 1058.398829 0003 0018 50
E: 1058.398830 0000 0000 0
E: 1058.404370 0003 0035 661
E: 1058.404371 0003 003a 49
E: 1058.404371 0003 0000 661
E: 1058.404372 0003 0018 49
E: 1058.404372 0000 0000 0
E: 1058.409914 0003 0036 237
E: 1058.409914 0003 003a 44
E: 1058.409915 0003 0001 237
E: 1058.409915 0003 0018 44
E: 1058.409915 0000 0000 0
E: 1058.415988 0003 003a 43
E: 1058.415990 0003 0018 43
E: 1058.415990 0000 0000 0
E: 1058.421522 0003 0036 238
E: 1058.421523 0003 003a 40
E: 1058.421523 0003 0001 238
E: 1058.421523 0003 0018 40
E: 1058.421523 0000 0000 0
E: 1058.427103 0003 003a 44
E: 1058.427104 0003 0018 44
E: 1058.427104 0000 0000 0
E: 1058.432633 0003 0035 660
E: 1058.432634 0003 0036 239
E: 1058.432634 0003 003a 42
E: 1058.432635 0003 0000 660
E: 1058.432635 0003 0001 239
E: 1058.432635 0003 0018 42
E: 1058.432635 0000 0000 0
E: 1058.438225 0003 0036 240
E: 1058.438225 0003 003a 44
E: 1058.438225 0003 0001 240
E: 1058.438226 0003 0018 44
E: 1058.438226 0000 0000 0
E: 1058.443837 0003 003a 43
E: 1058.443838 0003 0018 43
E: 1058.443838 0000 0000 0
E: 1058.449321 0003 0036 241
E: 1058.449321 0003 003a 41
E: 1058.449322 0003 0001 241
E: 1058.449322 0003 0018 41
E: 1058.449323 0000 0000 0
E: 1058.454943 0003 0035 659
E: 1058.454943 0003 0036 242
E: 1058.454943 0003 003a 42
E: 1058.454944 0003 0000 659
E: 1058.454944 0003 0001 242
E: 1058.454944 0003 0018 42
E: 1058.454944 0000 0000 0
E: 1058.460417 0003 0036 243
E: 1058.460417 0003 003a 46
E: 1058.460418 0003 0001 243
E: 1058.460418 0003 0018 46
E: 1058.460418 0000 0000 0
E: 1058.465969 0003 0035 658
E: 1058.465970 0003 0036 244
E: 1058.465970 0003 003a 44
E: 1058.465971 0003 0000 658
E: 1058.465971 0003 0001 244
E: 1058.465971 0003 0018 44
E: 1058.465971 0000 0000 0
E: 1058.477005 0003 0036 245
E: 1058.477005 0003 003a 48
E: 1058.477006 0003 0001 245
E: 1058.477006 0003 0018 48
E: 1058.477006 0000 0000 0
E: 1058.482588 0003 0035 657
E: 1058.482588 0003 0036 246
E: 1058.482589 0003 003a 46
E: 1058.482590 0003 0000 657
E: 1058.482590 0003 0001 246
E: 1058.482590 0003 0018 46
E: 1058.482590 0000 0000 0
E: 1058.488120 0003 0036 247
E: 1058.488121 0003 003a 44
E: 1058.488121 0003 0001 247
E: 1058.488122 0003 0018 44
E: 1058.488122 0000 0000 0
E: 1058.493699 0003 003a 45
E: 1058.493699 0003 0018 45
E: 1058.493699 0000 0000 0
E: 1058.499217 0003 0036 248
E: 1058.499219 0003 0001 248
E: 1058.499219 0000 0000 0
E: 1058.504812 0003 0035 656
E: 1058.504812 0003 0036 249
E: 1058.504812 0003 003a 48
E: 1058.504812 0003 0030 220
E: 1058.504813 0003 0000 656
E: 1058.504813 0003 0001 249
E: 1058.504813 0003 0018 48
E: 1058.504813 0000 0000 0
E: 1058.510375 0003 003a 44
E: 1058.510376 0003 0018 44
E: 1058.510376 0000 0000 0
E: 1058.515914 0003 0036 250
E: 1058.515914 0003 003a 45
E: 1058.515915 0003 0030 180
E: 1058.515916 0003 0001 250
E: 1058.515916 0003 0018 45
E: 1058.515916 0000 0000 0
E: 1058.521432 0003 003a 46
E: 1058.521432 0003 0018 46
E: 1058.521433 0000 0000 0
E: 1058.527013 0003 0036 251
E: 1058.527013 0003 003a 48
E: 1058.527013 0003 0030 220
E: 1058.527014 0003 0001 251
E: 1058.527014 0003 0018 48
E: 1058.527015 0000 0000 0
E: 1058.532526 0003 0035 655
E: 1058.532527 0003 003a 49
E: 1058.532528 0003 0000 655
E: 1058.532528 0003 0018 49
E: 1058.532528 0000 0000 0
E: 1058.538101 0003 0036 252
E: 1058.538101 0003 003a 48
E: 1058.538101 0003 0030 180
E: 1058.538102 0003 0001 252
E: 1058.538102 0003 0018 48
E: 1058.538102 0000 0000 0
E: 1058.549175 0003 003a 50
E: 1058.549176 0003 0030 220
E: 1058.549177 0003 0018 50
E: 1058.549177 0000 0000 0
E: 1058.554714 0003 003a 49
E: 1058.554714 0003 0030 180
E: 1058.554714 0003 0018 49
E: 1058.554714 0000 0000 0
E: 1058.560269 0003 0036 253
E: 1058.560269 0003 003a 48
E: 1058.560269 0003 0030 220
E: 1058.560270 0003 0001 253
E: 1058.560270 0003 0018 48
E: 1058.560270 0000 0000 0
E: 1058.565824 0003 003a 47
E: 1058.565825 0003 0018 47
E: 1058.565825 0000 0000 0
E: 1058.571422 0003 003a 50
E: 1058.571423 0003 0018 50
E: 1058.571423 0000 0000 0
E: 1058.576905 0003 003a 48
E: 1058.576906 0003 0018 48
E: 1058.576906 0000 0000 0
E: 1058.582425 0003 0036 254
E: 1058.582426 0003 003a 49
E: 1058.582426 0003 0001 254
E: 1058.582427 0003 0018 49
E: 1058.582427 0000 0000 0
E: 1058.587965 0003 003a 50
E: 1058.587966 0003 0030 180
E: 1058.587966 0003 0018 50
E: 1058.587966 0000 0000 0
E: 1058.593519 0003 0035 656
E: 1058.593519 0003 003a 54
E: 1058.593519 0003 0030 220
E: 1058.593520 0003 0000 656
E: 1058.593520 0003 0018 54
E: 1058.593520 0000 0000 0
E: 1058.604535 0003 003a 51
E: 1058.604536 0003 0018 51
E: 1058.604536 0000 0000 0
E: 1058.610745 0003 003a 53
E: 1058.610746 0003 0018 53
E: 1058.610746 0000 0000 0
E: 1058.616219 0003 0035 657
E: 1058.616219 0003 003a 54
E: 1058.616219 0003 0030 180
E: 1058.616220 0003 0000 657
E: 1058.616220 0003 0018 54
E: 1058.616221 0000 0000 0
E: 1058.621788 0003 003a 50
E: 1058.621789 0003 0018 50
E: 1058.621789 0000 0000 0
E: 1058.627306 0003 003a 52
E: 1058.627307 0003 0018 52
E: 1058.627307 0000 0000 0
E: 1058.632816 0003 0035 658
E: 1058.632816 0003 003a 51
E: 1058.632817 0003 0000 658
E: 1058.632817 0003 0018 51
E: 1058.632818 0000 0000 0
E: 1058.638359 0003 0036 253
E: 1058.638359 0003 003a 50
E: 1058.638360 0003 0001 253
E: 1058.638360 0003 0018 50
E: 1058.638360 0000 0000 0
E: 1058.643940 0003 0035 659
E: 1058.643940 0003 0000 659
E: 1058.643941 0000 0000 0
E: 1058.649400 0003 0035 660
E: 1058.649401 0003 0030 220
E: 1058.649402 0003 0000 660
E: 1058.649402 0000 0000 0
E: 1058.654943 0003 0035 661
E: 1058.654943 0003 0036 252
E: 1058.654943 0003 0000 661
E: 1058.654944 0003 0001 252
E: 1058.654944 0000 0000 0
E: 1058.660523 0003 0035 663
E: 1058.660523 0003 003a 49
E: 1058.660523 0003 0030 180
E: 1058.660524 0003 0000 663
E: 1058.660524 0003 0018 49
E: 1058.660524 0000 0000 0
E: 1058.666008 0003 0035 664
E: 1058.666009 0003 0036 251
E: 1058.666009 0003 003a 45
E: 1058.666009 0003 0030 220
E: 1058.666010 0003 0000 664
E: 1058.666010 0003 0001 251
E: 1058.666010 0003 0018 45
E: 1058.666010 0000 0000 0
E: 1058.671637 0003 0035 666
E: 1058.671637 0003 0036 250
E: 1058.671637 0003 003a 46
E: 1058.671638 0003 0000 666
E: 1058.671638 0003 0001 250
E: 1058.671638 0003 0018 46
E: 1058.671638 0000 0000 0
E: 1058.677206 0003 0035 667
E: 1058.677206 0003 0036 249
E: 1058.677206 0003 003a 45
E: 1058.677206 0003 0000 667
E: 1058.677207 0003 0001 249
E: 1058.677207 0003 0018 45
E: 1058.677207 0000 0000 0
E: 1058.682841 0003 0035 670
E: 1058.682842 0003 0036 248
E: 1058.682842 0003 003a 47
E: 1058.682843 0003 0000 670
E: 1058.682843 0003 0001 248
E: 1058.682843 0003 0018 47
E: 1058.682843 0000 0000 0
E: 1058.688318 0003 0035 672
E: 1058.688318 0003 0036 247
E: 1058.688318 0003 003a 46
E: 1058.688319 0003 0000 672
E: 1058.688319 0003 0001 247
E: 1058.688319 0003 0018 46
E: 1058.688319 0000 0000 0
E: 1058.693918 0003 0035 675
E: 1058.693918 0003 0036 245
E: 1058.693918 0003 003a 44
E: 1058.693919 0003 0000 675
E: 1058.693919 0003 0001 245
E: 1058.693919 0003 0018 44
E: 1058.693919 0000 0000 0
E: 1058.699486 0003 0035 676
E: 1058.699486 0003 0036 244
E: 1058.699487 0003 0000 676
E: 1058.699487 0003 0001 244
E: 1058.699488 0000 0000 0
E: 1058.705005 0003 0035 679
E: 1058.705005 0003 0036 243
E: 1058.705005 0003 003a 45
E: 1058.705006 0003 0000 679
E: 1058.705006 0003 0001 243
E: 1058.705006 0003 0018 45
E: 1058.705006 0000 0000 0
E: 1058.710628 0003 0035 682
E: 1058.710628 0003 0036 241
E: 1058.710628 0003 003a 46
E: 1058.710629 0003 0000 682
E: 1058.710629 0003 0001 241
E: 1058.710629 0003 0018 46
E: 1058.710629 0000 0000 0
E: 1058.716234 0003 0035 685
E: 1058.716235 0003 0036 240
E: 1058.716235 0003 003a 44
E: 1058.716236 0003 0000 685
E: 1058.716237 0003 0001 240
E: 1058.716237 0003 0018 44
E: 1058.716238 0000 0000 0
E: 1058.721879 0003 0035 687
E: 1058.721881 0003 0036 239
E: 1058.721882 0003 003a 46
E: 1058.721886 0003 0000 687
E: 1058.721886 0003 0001 239
E: 1058.721887 0003 0018 46
E: 1058.721888 0000 0000 0
E: 1058.727249 0003 0035 690
E: 1058.727249 0003 0036 238
E: 1058.727249 0003 003a 43
E: 1058.727249 0003 0030 180
E: 1058.727250 0003 0000 690
E: 1058.727250 0003 0001 238
E: 1058.727250 0003 0018 43
E: 1058.727251 0000 0000 0
E: 1058.732771 0003 0035 693
E: 1058.732772 0003 0036 237
E: 1058.732772 0003 003a 46
E: 1058.732774 0003 0000 693
E: 1058.732774 0003 0001 237
E: 1058.732775 0003 0018 46
E: 1058.732775 0000 0000 0
E: 1058.738251 0003 0035 695
E: 1058.738251 0003 0036 236
E: 1058.738253 0003 0000 695
E: 1058.738253 0003 0001 236
E: 1058.738253 0000 0000 0
E: 1058.743699 0003 0035 697
E: 1058.743700 0003 0000 697
E: 1058.743701 0000 0000 0
E: 1058.749277 0003 0035 698
E: 1058.749278 0003 0036 235
E: 1058.749278 0003 0030 220
E: 1058.749279 0003 0000 698
E: 1058.749279 0003 0001 235
E: 1058.749280 0000 0000 0
E: 1058.754770 0003 0035 700
E: 1058.754770 0003 003a 45
E: 1058.754770 0003 0030 180
E: 1058.754771 0003 0000 700
E: 1058.754772 0003 0018 45
E: 1058.754772 0000 0000 0
E: 1058.760235 0003 0035 701
E: 1058.760235 0003 0036 234
E: 1058.760235 0003 003a 43
E: 1058.760236 0003 0000 701
E: 1058.760236 0003 0001 234
E: 1058.760236 0003 0018 43
E: 1058.760236 0000 0000 0
E: 1058.765728 0003 0035 703
E: 1058.765728 0003 003a 47
E: 1058.765730 0003 0000 703
E: 1058.765730 0003 0018 47
E: 1058.765730 0000 0000 0
E: 1058.771237 0003 0035 704
E: 1058.771238 0003 0036 233
E: 1058.771238 0003 003a 43
E: 1058.771239 0003 0000 704
E: 1058.771239 0003 0001 233
E: 1058.771239 0003 0018 43
E: 1058.771239 0000 0000 0
E: 1058.776719 0003 0035 705
E: 1058.776719 0003 003a 47
E: 1058.776720 0003 0000 705
E: 1058.776720 0003 0018 47
E: 1058.776720 0000 0000 0
E: 1058.782202 0003 0035 706
E: 1058.782202 0003 0036 232
E: 1058.782202 0003 003a 46
E: 1058.782203 0003 0000 706
E: 1058.782204 0003 0001 232
E: 1058.782204 0003 0018 46
E: 1058.782204 0000 0000 0
E: 1058.787707 0003 0035 707
E: 1058.787707 0003 003a 43
E: 1058.787708 0003 0000 707
E: 1058.787708 0003 0018 43
E: 1058.787709 0000 0000 0
E: 1058.793201 0003 0035 708
E: 1058.793202 0003 003a 45
E: 1058.793202 0003 0000 708
E: 1058.793203 0003 0018 45
E: 1058.793203 0000 0000 0
E: 1058.798690 0003 0035 709
E: 1058.798690 0003 0036 231
E: 1058.798690 0003 003a 48
E: 1058.798691 0003 0000 709
E: 1058.798692 0003 0001 231
E: 1058.798692 0003 0018 48
E: 1058.798692 0000 0000 0
E: 1058.804166 0003 0035 710
E: 1058.804167 0003 003a 46
E: 1058.804168 0003 0000 710
E: 1058.804168 0003 0018 46
E: 1058.804168 0000 0000 0
E: 1058.810202 0003 0035 711
E: 1058.810203 0003 0036 230
E: 1058.810203 0003 0000 711
E: 1058.810204 0003 0001 230
E: 1058.810204 0000 0000 0
E: 1058.815715 0003 0035 712
E: 1058.815716 0003 0000 712
E: 1058.815717 0000 0000 0
E: 1058.826761 0003 0035 713
E: 1058.826761 0003 003a 47
E: 1058.826761 0003 0030 220
E: 1058.826762 0003 0000 713
E: 1058.826762 0003 0018 47
E: 1058.826762 0000 0000 0
E: 1058.832321 0003 0035 714
E: 1058.832322 0003 0036 229
E: 1058.832322 0003 003a 48
E: 1058.832324 0003 0000 714
E: 1058.832324 0003 0001 229
E: 1058.832325 0003 0018 48
E: 1058.832325 0000 0000 0
E: 1058.837809 0003 003a 45
E: 1058.837809 0003 0030 180
E: 1058.837811 0003 0018 45
E: 1058.837811 0000 0000 0
E: 1058.843372 0003 0035 715
E: 1058.843372 0003 003a 47
E: 1058.843372 0003 0030 220
E: 1058.843373 0003 0000 715
E: 1058.843373 0003 0018 47
E: 1058.843373 0000 0000 0
E: 1058.848940 0003 0035 716
E: 1058.848940 0003 003a 48
E: 1058.848941 0003 0000 716
E: 1058.848942 0003 0018 48
E: 1058.848942 0000 0000 0
E: 1058.854411 0003 0036 228
E: 1058.854412 0003 003a 46
E: 1058.854412 0003 0030 180
E: 1058.854412 0003 0001 228
E: 1058.854413 0003 0018 46
E: 1058.854413 0000 0000 0
E: 1058.859985 0003 0035 717
E: 1058.859985 0003 003a 45
E: 1058.859985 0003 0030 220
E: 1058.859986 0003 0000 717
E: 1058.859986 0003 0018 45
E: 1058.859986 0000 0000 0
E: 1058.865483 0003 0035 718
E: 1058.865483 0003 003a 44
E: 1058.865483 0003 0030 180
E: 1058.865484 0003 0000 718
E: 1058.865484 0003 0018 44
E: 1058.865484 0000 0000 0
E: 1058.871018 0003 003a 41
E: 1058.871020 0003 0018 41
E: 1058.871021 0000 0000 0
E: 1058.876505 0003 003a 37
E: 1058.876506 0003 0030 126
E: 1058.876507 0003 0018 37
E: 1058.876507 0000 0000 0
E: 1058.882018 0003 0035 719
E: 1058.882018 0003 003a 29
E: 1058.882019 0003 0000 719
E: 1058.882019 0003 0018 29
E: 1058.882019 0000 0000 0
E: 1058.887489 0003 0035 720
E: 1058.887490 0003 003a 23
E: 1058.887490 0003 0000 720
E: 1058.887491 0003 0018 23
E: 1058.887491 0000 0000 0
E: 1058.908059 0003 0039 -1
E: 1058.908060 0001 014a 0
E: 1058.908060 0001 0145 0
E: 1058.908060 0003 0018 0
E: 1058.908061 0000 0000 0
E: 1059.023742 0003 0039 447
E: 1059.023742 0003 0035 675
E: 1059.023743 0003 0036 279
E: 1059.023743 0003 003a 54
E: 1059.023743 0003 0030 254
E: 1059.023744 0001 014a 1
E: 1059.023744 0001 0145 1
E: 1059.023745 0003 0000 675
E: 1059.023745 0003 0001 279
E: 1059.023745 0003 0018 54
E: 1059.023745 0000 0000 0
E: 1059.029292 0003 003a 58
E: 1059.029293 0003 0018 58
E: 1059.029293 0000 0000 0
E: 1059.034829 0003 003a 52
E: 1059.034830 0003 0018 52
E: 1059.034831 0000 0000 0
E: 1059.040374 0003 003a 56
E: 1059.040374 0003 0018 56
E: 1059.040375 0000 0000 0
E: 1059.045911 0003 003a 53
E: 1059.045912 0003 0018 53
E: 1059.045912 0000 0000 0
E: 1059.051456 0003 003a 52
E: 1059.051457 0003 0018 52
E: 1059.051457 0000 0000 0
E: 1059.062534 0003 003a 46
E: 1059.062535 0003 0018 46
E: 1059.062535 0000 0000 0
E: 1059.068131 0003 003a 35
E: 1059.068131 0003 0030 220
E: 1059.068132 0003 0018 35
E: 1059.068132 0000 0000 0
E: 1059.073620 0003 003a 21
E: 1059.073620 0003 0030 126
E: 1059.073621 0003 0018 21
E: 1059.073621 0000 0000 0
E: 1059.094145 0003 0039 -1
E: 1059.094145 0001 014a 0
E: 1059.094146 0001 0145 0
E: 1059.094146 0003 0018 0
E: 1059.094146 0000 0000 0
E: 1059.094646 0003 002f 0
E: 1059.094646 0003 0039 -1
E: 1059.094646 0003 002f 1
E: 1059.094646 0003 0039 -1
E: 1059.094646 0003 002f 2
E: 1059.094646 0003 0039 -1
E: 1059.094646 0003 002f 3
E: 1059.094646 0003 0039 -1
E: 1059.094646 0003 002f 4
E: 1059.094646 0003 0039 -1
E: 1059.094646 0003 002f 5
E: 1059.094646 0003 0039 -1
E: 1059.094646 0003 002f 6
E: 1059.094646 0003 0039 -1
E: 1059.094646 0003 002f 7
E: 1059.094646 0003 0039 -1
E: 1059.094646 0003 002f 8
E: 1059.094646 0003 0039 -1
E: 1059.094646 0003 002f 9
E: 1059.094646 0003 0039 -1
