#sessionInfo releaseName unknown
#sessionInfo releaseId 0xcafebabe
#sessionInfo targetName "Surfaceless"
#beginSession

#beginTestCaseResult dEQP-GLES2.functional.prerequisite.read_pixels
<?xml version="1.0" encoding="UTF-8"?>
<TestCaseResult Version="0.3.4" CasePath="dEQP-GLES2.functional.prerequisite.read_pixels" CaseType="SelfValidate">
 <ImageSet Name="Result" Description="Resulting framebuffer" />
 <ImageSet Name="Result" Description="Resulting framebuffer" />
 <ImageSet Name="Result" Description="Resulting framebuffer" />
 <ImageSet Name="Result" Description="Resulting framebuffer" />
 <ImageSet Name="Result" Description="Resulting framebuffer" />
 <ImageSet Name="Result" Description="Resulting framebuffer" />
 <ImageSet Name="Result" Description="Resulting framebuffer" />
 <ImageSet Name="Result" Description="Resulting framebuffer" />
 <ImageSet Name="Result" Description="Resulting framebuffer" />
 <ImageSet Name="Result" Description="Resulting framebuffer" />
 <ImageSet Name="Result" Description="Resulting framebuffer" />
 <ImageSet Name="Result" Description="Resulting framebuffer" />
 <ImageSet Name="Result" Description="Resulting framebuffer" />
 <ImageSet Name="Result" Description="Resulting framebuffer" />
 <ImageSet Name="Result" Description="Resulting framebuffer" />
 <ImageSet Name="Result" Description="Resulting framebuffer" />
 <ImageSet Name="Result" Description="Resulting framebuffer" />
 <ImageSet Name="Result" Description="Resulting framebuffer" />
 <ImageSet Name="Result" Description="Resulting framebuffer" />
 <ImageSet Name="Result" Description="Resulting framebuffer" />
 <Number Name="TestDuration" Description="Test case duration in microseconds" Tag="Time" Unit="us">14876</Number>
 <Result StatusCode="Fail">Fail</Result>
</TestCaseResult>

#endTestCaseResult

#endSession
