E: 7905.814408 0003 002f 0
E: 7905.814408 0003 0030 0
E: 7905.814408 0003 0031 0
E: 7905.814408 0003 0032 0
E: 7905.814408 0003 0033 0
E: 7905.814408 0003 0034 0
E: 7905.814408 0003 0035 848
E: 7905.814408 0003 0036 503
E: 7905.814408 0003 0037 0
E: 7905.814408 0003 0038 0
E: 7905.814408 0003 0039 7254
E: 7905.814408 0003 003a 8
E: 7905.814408 0003 003b 0
E: 7905.814408 0003 002f 1
E: 7905.814408 0003 0039 -1
E: 7905.814408 0003 002f 2
E: 7905.814408 0003 0039 -1
E: 7905.814408 0003 002f 3
E: 7905.814408 0003 0039 -1
E: 7905.814408 0003 002f 4
E: 7905.814408 0003 0039 -1
E: 7905.814408 0003 002f 5
E: 7905.814408 0003 0039 -1
E: 7905.814408 0003 002f 6
E: 7905.814408 0003 0039 -1
E: 7905.814408 0003 002f 7
E: 7905.814408 0003 0039 -1
E: 7905.814408 0003 002f 8
E: 7905.814408 0003 0039 -1
E: 7905.814408 0003 002f 9
E: 7905.814408 0003 0039 -1
E: 7905.814408 0003 002f 10
E: 7905.814408 0003 0039 -1
E: 7905.814408 0003 002f 11
E: 7905.814408 0003 0039 -1
E: 7905.814408 0003 002f 12
E: 7905.814408 0003 0039 -1
E: 7905.814408 0003 002f 13
E: 7905.814408 0003 0039 -1
E: 7905.814408 0003 002f 14
E: 7905.814408 0003 0039 -1
E: 7905.814408 0003 002f 0
E: 7905.814408 0001 0145 1
E: 7905.814408 0001 014a 1
E: 7905.814408 0000 0000 0
E: 7905.822717 0003 0036 508
E: 7905.822721 0003 003a 14
E: 7905.822748 0003 0001 508
E: 7905.822750 0003 0018 14
E: 7905.822752 0000 0000 0
E: 7905.831155 0003 0035 849
E: 7905.831158 0003 0036 507
E: 7905.831160 0003 003a 15
E: 7905.831185 0003 0000 849
E: 7905.831187 0003 0001 507
E: 7905.831189 0003 0018 15
E: 7905.831191 0000 0000 0
E: 7905.839538 0003 0035 850
E: 7905.839542 0003 0036 500
E: 7905.839568 0003 0000 850
E: 7905.839570 0003 0001 500
E: 7905.839573 0000 0000 0
E: 7905.849355 0003 0035 851
E: 7905.849359 0003 0036 495
E: 7905.849362 0003 002f 1
E: 7905.849364 0003 0039 7255
E: 7905.849367 0003 0035 551
E: 7905.849369 0003 0036 530
E: 7905.849370 0003 003a 8
E: 7905.849392 0001 0145 0
E: 7905.849394 0001 014d 1
E: 7905.849412 0003 0000 851
E: 7905.849414 0003 0001 495
E: 7905.849418 0000 0000 0
E: 7905.859072 0003 002f 0
E: 7905.859075 0003 0035 852
E: 7905.859077 0003 0036 489
E: 7905.859079 0003 003a 16
E: 7905.859084 0003 002f 1
E: 7905.859086 0003 003a 20
E: 7905.859110 0003 0000 852
E: 7905.859112 0003 0001 489
E: 7905.859114 0003 0018 16
E: 7905.859116 0000 0000 0
E: 7905.869132 0003 002f 0
E: 7905.869135 0003 0036 481
E: 7905.869137 0003 003a 17
E: 7905.869143 0003 002f 1
E: 7905.869144 0003 003a 28
E: 7905.869169 0003 0001 481
E: 7905.869171 0003 0018 17
E: 7905.869173 0000 0000 0
E: 7905.879045 0003 002f 0
E: 7905.879047 0003 0035 851
E: 7905.879049 0003 0036 473
E: 7905.879055 0003 002f 1
E: 7905.879056 0003 0036 528
E: 7905.879058 0003 003a 30
E: 7905.879091 0003 0000 851
E: 7905.879093 0003 0001 473
E: 7905.879096 0000 0000 0
E: 7905.895106 0003 002f 0
E: 7905.895109 0003 0035 849
E: 7905.895112 0003 0036 463
E: 7905.895123 0003 002f 1
E: 7905.895125 0003 0036 524
E: 7905.895129 0003 003a 31
E: 7905.895167 0003 0000 849
E: 7905.895170 0003 0001 463
E: 7905.895175 0000 0000 0
E: 7905.898784 0003 002f 0
E: 7905.898788 0003 0035 847
E: 7905.898790 0003 0036 457
E: 7905.898798 0003 002f 1
E: 7905.898800 0003 0036 518
E: 7905.898842 0003 0000 847
E: 7905.898845 0003 0001 457
E: 7905.898848 0000 0000 0
E: 7905.908285 0003 002f 0
E: 7905.908288 0003 0036 450
E: 7905.908291 0003 003a 18
E: 7905.908296 0003 002f 1
E: 7905.908298 0003 0036 510
E: 7905.908301 0003 003a 33
E: 7905.908333 0003 0001 450
E: 7905.908336 0003 0018 18
E: 7905.908339 0000 0000 0
E: 7905.918016 0003 002f 0
E: 7905.918019 0003 0036 443
E: 7905.918022 0003 003a 16
E: 7905.918028 0003 002f 1
E: 7905.918029 0003 0036 504
E: 7905.918059 0003 0001 443
E: 7905.918061 0003 0018 16
E: 7905.918064 0000 0000 0
E: 7905.927734 0003 002f 0
E: 7905.927738 0003 0036 442
E: 7905.927740 0003 003a 17
E: 7905.927744 0003 002f 1
E: 7905.927745 0003 0035 553
E: 7905.927748 0003 0036 502
E: 7905.927749 0003 003a 34
E: 7905.927778 0003 0001 442
E: 7905.927780 0003 0018 17
E: 7905.927783 0000 0000 0
E: 7905.937468 0003 002f 0
E: 7905.937470 0003 0036 437
E: 7905.937473 0003 003a 18
E: 7905.937509 0003 0001 437
E: 7905.937511 0003 0018 18
E: 7905.937514 0000 0000 0
E: 7905.947236 0003 002f 1
E: 7905.947239 0003 003a 35
E: 7905.947269 0000 0000 0
E: 7905.966657 0003 002f 0
E: 7905.966660 0003 0035 846
E: 7905.966693 0003 0000 846
E: 7905.966697 0000 0000 0
E: 7905.976389 0003 002f 1
E: 7905.976392 0003 003a 36
E: 7905.976440 0000 0000 0
E: 7905.995892 0003 003a 37
E: 7905.995940 0000 0000 0
E: 7906.005828 0003 0036 503
E: 7906.005873 0000 0000 0
E: 7906.015306 0003 002f 0
E: 7906.015309 0003 003a 19
E: 7906.015313 0003 002f 1
E: 7906.015315 0003 0035 554
E: 7906.015317 0003 003a 39
E: 7906.015343 0003 0018 19
E: 7906.015345 0000 0000 0
E: 7906.054283 0003 0036 504
E: 7906.054326 0000 0000 0
E: 7906.063951 0003 002f 0
E: 7906.063954 0003 003a 18
E: 7906.063985 0003 0018 18
E: 7906.063996 0000 0000 0
E: 7906.083438 0003 0035 845
E: 7906.083442 0003 0036 436
E: 7906.083470 0003 0000 845
E: 7906.083472 0003 0001 436
E: 7906.083476 0000 0000 0
E: 7906.093209 0003 0036 435
E: 7906.093213 0003 003a 19
E: 7906.093222 0003 002f 1
E: 7906.093223 0003 003a 40
E: 7906.093253 0003 0001 435
E: 7906.093255 0003 0018 19
E: 7906.093258 0000 0000 0
E: 7906.102982 0003 002f 0
E: 7906.102985 0003 003a 18
E: 7906.102992 0003 002f 1
E: 7906.102994 0003 0036 505
E: 7906.103030 0003 0018 18
E: 7906.103032 0000 0000 0
E: 7906.112675 0003 002f 0
E: 7906.112678 0003 0035 846
E: 7906.112680 0003 0036 433
E: 7906.112709 0003 0000 846
E: 7906.112711 0003 0001 433
E: 7906.112714 0000 0000 0
E: 7906.132206 0003 0035 847
E: 7906.132209 0003 0036 432
E: 7906.132238 0003 0000 847
E: 7906.132240 0003 0001 432
E: 7906.132244 0000 0000 0
E: 7906.141902 0003 002f 1
E: 7906.141904 0003 003a 39
E: 7906.141932 0000 0000 0
E: 7906.171132 0003 002f 0
E: 7906.171136 0003 003a 19
E: 7906.171143 0003 002f 1
E: 7906.171145 0003 003a 40
E: 7906.171180 0003 0018 19
E: 7906.171183 0000 0000 0
E: 7906.210082 0003 002f 0
E: 7906.210085 0003 0036 431
E: 7906.210115 0003 0001 431
E: 7906.210118 0000 0000 0
E: 7906.229546 0003 0035 849
E: 7906.229577 0003 0000 849
E: 7906.229582 0000 0000 0
E: 7906.268510 0003 003a 18
E: 7906.268517 0003 002f 1
E: 7906.268518 0003 0036 506
E: 7906.268544 0003 0018 18
E: 7906.268546 0000 0000 0
E: 7906.278262 0003 003a 41
E: 7906.278291 0000 0000 0
E: 7906.288000 0003 002f 0
E: 7906.288002 0003 003a 19
E: 7906.288031 0003 0018 19
E: 7906.288034 0000 0000 0
E: 7906.336782 0003 0035 848
E: 7906.336786 0003 0036 428
E: 7906.336789 0003 003a 20
E: 7906.336797 0003 002f 1
E: 7906.336798 0003 003a 40
E: 7906.336833 0003 0000 848
E: 7906.336836 0003 0001 428
E: 7906.336838 0003 0018 20
E: 7906.336841 0000 0000 0
E: 7906.346694 0003 002f 0
E: 7906.346696 0003 0035 851
E: 7906.346699 0003 0036 416
E: 7906.346704 0003 002f 1
E: 7906.346706 0003 0036 505
E: 7906.346707 0003 003a 39
E: 7906.346732 0003 0000 851
E: 7906.346734 0003 0001 416
E: 7906.346737 0000 0000 0
E: 7906.356760 0003 002f 0
E: 7906.356764 0003 0035 855
E: 7906.356766 0003 0036 406
E: 7906.356768 0003 003a 21
E: 7906.356773 0003 002f 1
E: 7906.356774 0003 0036 492
E: 7906.356776 0003 003a 42
E: 7906.356802 0003 0000 855
E: 7906.356804 0003 0001 406
E: 7906.356806 0003 0018 21
E: 7906.356808 0000 0000 0
E: 7906.366968 0003 002f 0
E: 7906.366971 0003 0035 858
E: 7906.366973 0003 0036 396
E: 7906.366975 0003 003a 22
E: 7906.366979 0003 002f 1
E: 7906.366980 0003 0035 555
E: 7906.366982 0003 0036 476
E: 7906.367007 0003 0000 858
E: 7906.367009 0003 0001 396
E: 7906.367011 0003 0018 22
E: 7906.367013 0000 0000 0
E: 7906.376982 0003 002f 0
E: 7906.376986 0003 0035 861
E: 7906.376989 0003 0036 368
E: 7906.376991 0003 003a 21
E: 7906.376996 0003 002f 1
E: 7906.376998 0003 0035 558
E: 7906.377000 0003 0036 461
E: 7906.377002 0003 003a 41
E: 7906.377031 0003 0000 861
E: 7906.377033 0003 0001 368
E: 7906.377035 0003 0018 21
E: 7906.377037 0000 0000 0
E: 7906.387264 0003 002f 0
E: 7906.387267 0003 0035 865
E: 7906.387269 0003 0036 342
E: 7906.387271 0003 003a 24
E: 7906.387276 0003 002f 1
E: 7906.387277 0003 0036 432
E: 7906.387279 0003 003a 44
E: 7906.387303 0003 0000 865
E: 7906.387306 0003 0001 342
E: 7906.387308 0003 0018 24
E: 7906.387310 0000 0000 0
E: 7906.397325 0003 002f 0
E: 7906.397328 0003 0035 867
E: 7906.397331 0003 0036 313
E: 7906.397332 0003 003a 25
E: 7906.397337 0003 002f 1
E: 7906.397339 0003 0036 402
E: 7906.397364 0003 0000 867
E: 7906.397366 0003 0001 313
E: 7906.397368 0003 0018 25
E: 7906.397370 0000 0000 0
E: 7906.407589 0003 002f 0
E: 7906.407592 0003 0035 868
E: 7906.407594 0003 0036 275
E: 7906.407597 0003 003a 26
E: 7906.407602 0003 002f 1
E: 7906.407604 0003 0035 556
E: 7906.407606 0003 0036 363
E: 7906.407608 0003 003a 47
E: 7906.407638 0003 0000 868
E: 7906.407640 0003 0001 275
E: 7906.407642 0003 0018 26
E: 7906.407645 0000 0000 0
E: 7906.417712 0003 002f 0
E: 7906.417714 0003 0036 245
E: 7906.417716 0003 003a 28
E: 7906.417721 0003 002f 1
E: 7906.417722 0003 0035 551
E: 7906.417724 0003 0036 321
E: 7906.417726 0003 003a 48
E: 7906.417751 0003 0001 245
E: 7906.417753 0003 0018 28
E: 7906.417755 0000 0000 0
E: 7906.429030 0003 002f 0
E: 7906.429033 0003 0035 870
E: 7906.429035 0003 0036 207
E: 7906.429037 0003 003a 29
E: 7906.429042 0003 002f 1
E: 7906.429043 0003 0035 550
E: 7906.429045 0003 0036 278
E: 7906.429047 0003 003a 47
E: 7906.429071 0003 0000 870
E: 7906.429073 0003 0001 207
E: 7906.429075 0003 0018 29
E: 7906.429077 0000 0000 0
E: 7906.439911 0003 002f 0
E: 7906.439914 0003 0035 875
E: 7906.439916 0003 0036 168
E: 7906.439918 0003 003a 27
E: 7906.439923 0003 002f 1
E: 7906.439924 0003 0036 227
E: 7906.439926 0003 003a 46
E: 7906.439959 0003 0000 875
E: 7906.439961 0003 0001 168
E: 7906.439963 0003 0018 27
E: 7906.439966 0000 0000 0
E: 7906.451325 0003 002f 0
E: 7906.451328 0003 0035 879
E: 7906.451330 0003 0036 132
E: 7906.451332 0003 003a 28
E: 7906.451336 0003 002f 1
E: 7906.451338 0003 0035 557
E: 7906.451340 0003 0036 183
E: 7906.451341 0003 003a 39
E: 7906.451366 0003 0000 879
E: 7906.451368 0003 0001 132
E: 7906.451370 0003 0018 28
E: 7906.451372 0000 0000 0
E: 7906.462423 0003 002f 0
E: 7906.462426 0003 0035 884
E: 7906.462428 0003 0036 100
E: 7906.462430 0003 003a 19
E: 7906.462434 0003 002f 1
E: 7906.462435 0003 0035 564
E: 7906.462437 0003 0036 145
E: 7906.462439 0003 003a 12
E: 7906.462463 0003 0000 884
E: 7906.462465 0003 0001 100
E: 7906.462467 0003 0018 19
E: 7906.462469 0000 0000 0
E: 7906.470731 0003 002f 0
E: 7906.470734 0003 0039 -1
E: 7906.470737 0003 002f 1
E: 7906.470739 0003 0039 -1
E: 7906.470759 0001 014a 0
E: 7906.470762 0001 014d 0
E: 7906.470764 0003 0018 0
E: 7906.470766 0000 0000 0
E: 7906.471266 0003 002f 0
E: 7906.471266 0003 0039 -1
E: 7906.471266 0003 002f 1
E: 7906.471266 0003 0039 -1
E: 7906.471266 0003 002f 2
E: 7906.471266 0003 0039 -1
E: 7906.471266 0003 002f 3
E: 7906.471266 0003 0039 -1
E: 7906.471266 0003 002f 4
E: 7906.471266 0003 0039 -1
E: 7906.471266 0003 002f 5
E: 7906.471266 0003 0039 -1
E: 7906.471266 0003 002f 6
E: 7906.471266 0003 0039 -1
E: 7906.471266 0003 002f 7
E: 7906.471266 0003 0039 -1
E: 7906.471266 0003 002f 8
E: 7906.471266 0003 0039 -1
E: 7906.471266 0003 002f 9
E: 7906.471266 0003 0039 -1
E: 7906.471266 0003 002f 10
E: 7906.471266 0003 0039 -1
E: 7906.471266 0003 002f 11
E: 7906.471266 0003 0039 -1
E: 7906.471266 0003 002f 12
E: 7906.471266 0003 0039 -1
E: 7906.471266 0003 002f 13
E: 7906.471266 0003 0039 -1
E: 7906.471266 0003 002f 14
E: 7906.471266 0003 0039 -1
