{
  "_comment": "See http://www.chromium.org/chromium-os/developer-guide/disk-layout-format",
  "metadata":{
    "rootdev_base": "/sys/devices/pci0000:00/0000:00:1f.2/ata1/host*/target*/*/block/sd*"
  },
  "parent": "legacy_disk_layout.json",
  "layouts":{
  }
}
