{
  "GetArcFiles": [],
  "GetAudioFiles": [
    [
      "astronaut/audio/cras-config/bxtda7219max",
      "/etc/cras/astronaut/bxtda7219max"
    ],
    [
      "astronaut/audio/cras-config/dsp.ini",
      "/etc/cras/astronaut/dsp.ini"
    ],
    [
      "babymega/audio/cras-config/bxtda7219max",
      "/etc/cras/babymega/bxtda7219max"
    ],
    [
      "babymega/audio/cras-config/dsp.ini",
      "/etc/cras/babymega/dsp.ini"
    ],
    [
      "babymega/audio/ucm-config/1mic/HiFi",
      "/usr/share/alsa/ucm/bxtda7219max.1micBabymega/HiFi"
    ],
    [
      "babymega/audio/ucm-config/1mic/bxtda7219max.conf",
      "/usr/share/alsa/ucm/bxtda7219max.1micBabymega/bxtda7219max.1micBabymega.conf"
    ],
    [
      "babytiger/audio/cras-config/bxtda7219max",
      "/etc/cras/babytiger/bxtda7219max"
    ],
    [
      "babytiger/audio/cras-config/dsp.ini",
      "/etc/cras/babytiger/dsp.ini"
    ],
    [
      "babytiger/audio/ucm-config/2mic/HiFi",
      "/usr/share/alsa/ucm/bxtda7219max.2micBabytiger/HiFi"
    ],
    [
      "babytiger/audio/ucm-config/2mic/bxtda7219max.conf",
      "/usr/share/alsa/ucm/bxtda7219max.2micBabytiger/bxtda7219max.2micBabytiger.conf"
    ],
    [
      "blacktip/audio/cras-config/bxtda7219max",
      "/etc/cras/blacktip/bxtda7219max"
    ],
    [
      "blacktip/audio/cras-config/dsp.ini",
      "/etc/cras/blacktip/dsp.ini"
    ],
    [
      "blacktip360/audio/cras-config/bxtda7219max",
      "/etc/cras/blacktip360/bxtda7219max"
    ],
    [
      "blacktip360/audio/cras-config/dsp.ini",
      "/etc/cras/blacktip360/dsp.ini"
    ],
    [
      "blacktiplte/audio/cras-config/bxtda7219max",
      "/etc/cras/blacktiplte/bxtda7219max"
    ],
    [
      "blacktiplte/audio/cras-config/dsp.ini",
      "/etc/cras/blacktiplte/dsp.ini"
    ],
    [
      "blue/audio/cras-config/bxtda7219max",
      "/etc/cras/blue/bxtda7219max"
    ],
    [
      "blue/audio/cras-config/dsp.ini",
      "/etc/cras/blue/dsp.ini"
    ],
    [
      "bruce/audio/cras-config/bxtda7219max",
      "/etc/cras/bruce/bxtda7219max"
    ],
    [
      "bruce/audio/cras-config/dsp.ini",
      "/etc/cras/bruce/dsp.ini"
    ],
    [
      "bruce/audio/ucm-config/2mic/HiFi",
      "/usr/share/alsa/ucm/bxtda7219max.2micBruce360/HiFi"
    ],
    [
      "bruce/audio/ucm-config/2mic/bxtda7219max.conf",
      "/usr/share/alsa/ucm/bxtda7219max.2micBruce360/bxtda7219max.2micBruce360.conf"
    ],
    [
      "common/audio/ucm-config/1mic/HiFi",
      "/usr/share/alsa/ucm/bxtda7219max.1mic/HiFi"
    ],
    [
      "common/audio/ucm-config/1mic/bxtda7219max.conf",
      "/usr/share/alsa/ucm/bxtda7219max.1mic/bxtda7219max.1mic.conf"
    ],
    [
      "common/audio/ucm-config/2mic/HiFi",
      "/usr/share/alsa/ucm/bxtda7219max.2mic/HiFi"
    ],
    [
      "common/audio/ucm-config/2mic/bxtda7219max.conf",
      "/usr/share/alsa/ucm/bxtda7219max.2mic/bxtda7219max.2mic.conf"
    ],
    [
      "epaulette/audio/cras-config/bxtda7219max",
      "/etc/cras/epaulette/bxtda7219max"
    ],
    [
      "epaulette/audio/cras-config/dsp.ini",
      "/etc/cras/epaulette/dsp.ini"
    ],
    [
      "epaulette/audio/ucm-config/2mic/HiFi",
      "/usr/share/alsa/ucm/bxtda7219max.2micEpaulette/HiFi"
    ],
    [
      "epaulette/audio/ucm-config/2mic/bxtda7219max.conf",
      "/usr/share/alsa/ucm/bxtda7219max.2micEpaulette/bxtda7219max.2micEpaulette.conf"
    ],
    [
      "lava/audio/cras-config/bxtda7219max",
      "/etc/cras/lava/bxtda7219max"
    ],
    [
      "lava/audio/cras-config/dsp.ini",
      "/etc/cras/lava/dsp.ini"
    ],
    [
      "nasher/audio/cras-config/bxtda7219max",
      "/etc/cras/nasher/bxtda7219max"
    ],
    [
      "nasher/audio/cras-config/dsp.ini",
      "/etc/cras/nasher/dsp.ini"
    ],
    [
      "nasher/audio/ucm-config/HiFi",
      "/usr/share/alsa/ucm/bxtda7219max.nasher/HiFi"
    ],
    [
      "nasher/audio/ucm-config/bxtda7219max.conf",
      "/usr/share/alsa/ucm/bxtda7219max.nasher/bxtda7219max.nasher.conf"
    ],
    [
      "nasher360/audio/ucm-config/2mic/HiFi",
      "/usr/share/alsa/ucm/bxtda7219max.2micNasher360/HiFi"
    ],
    [
      "nasher360/audio/ucm-config/2mic/bxtda7219max.conf",
      "/usr/share/alsa/ucm/bxtda7219max.2micNasher360/bxtda7219max.2micNasher360.conf"
    ],
    [
      "rabbid/audio/cras-config/bxtda7219max",
      "/etc/cras/rabbid/bxtda7219max"
    ],
    [
      "rabbid/audio/cras-config/dsp.ini",
      "/etc/cras/rabbid/dsp.ini"
    ],
    [
      "rabbid/audio/ucm-config/2mic/HiFi",
      "/usr/share/alsa/ucm/bxtda7219max.2micRabbid/HiFi"
    ],
    [
      "rabbid/audio/ucm-config/2mic/bxtda7219max.conf",
      "/usr/share/alsa/ucm/bxtda7219max.2micRabbid/bxtda7219max.2micRabbid.conf"
    ],
    [
      "rabbid_rugged/audio/cras-config/bxtda7219max",
      "/etc/cras/rabbid_rugged/bxtda7219max"
    ],
    [
      "rabbid_rugged/audio/cras-config/dsp.ini",
      "/etc/cras/rabbid_rugged/dsp.ini"
    ],
    [
      "rabbid_rugged/audio/ucm-config/2mic/HiFi",
      "/usr/share/alsa/ucm/bxtda7219max.2micRabbid_rugged/HiFi"
    ],
    [
      "rabbid_rugged/audio/ucm-config/2mic/bxtda7219max.conf",
      "/usr/share/alsa/ucm/bxtda7219max.2micRabbid_rugged/bxtda7219max.2micRabbid_rugged.conf"
    ],
    [
      "robo/audio/cras-config/bxtda7219max",
      "/etc/cras/robo/bxtda7219max"
    ],
    [
      "robo/audio/cras-config/dsp.ini",
      "/etc/cras/robo/dsp.ini"
    ],
    [
      "robo360/audio/ucm-config/HiFi",
      "/usr/share/alsa/ucm/bxtda7219max.robo360/HiFi"
    ],
    [
      "robo360/audio/ucm-config/bxtda7219max.conf",
      "/usr/share/alsa/ucm/bxtda7219max.robo360/bxtda7219max.robo360.conf"
    ],
    [
      "whitetip/audio/cras-config/bxtda7219max",
      "/etc/cras/whitetip/bxtda7219max"
    ],
    [
      "whitetip/audio/cras-config/dsp.ini",
      "/etc/cras/whitetip/dsp.ini"
    ]
  ],
  "GetBluetoothFiles": [
    [
      "blacktip/bluetooth/main.conf",
      "/etc/bluetooth/blacktip/main.conf"
    ],
    [
      "common/bluetooth/main.conf",
      "/etc/bluetooth/common/main.conf"
    ]
  ],
  "GetDetachableBaseFirmwareFiles": [],
  "GetFirmwareBuildCombinations": {},
  "GetFirmwareBuildTargets_coreboot": [],
  "GetFirmwareBuildTargets_ec": [],
  "GetFirmwareInfo": {},
  "GetFirmwareUris": [],
  "GetProperty_astronaut": {
    "/::name": "astronaut",
    "/::test-label": "astronaut",
    "/audio/main::cras-config-dir": "astronaut",
    "/audio/main::files": "[{'destination': '/etc/cras/astronaut/bxtda7219max', 'source': 'astronaut/audio/cras-config/bxtda7219max'}, {'destination': '/etc/cras/astronaut/dsp.ini', 'source': 'astronaut/audio/cras-config/dsp.ini'}, {'destination': '/usr/share/alsa/ucm/bxtda7219max.1mic/HiFi', 'source': 'common/audio/ucm-config/1mic/HiFi'}, {'destination': '/usr/share/alsa/ucm/bxtda7219max.1mic/bxtda7219max.1mic.conf', 'source': 'common/audio/ucm-config/1mic/bxtda7219max.conf'}]",
    "/audio/main::ucm-suffix": "1mic",
    "/bluetooth/config::build-path": "common/bluetooth/main.conf",
    "/bluetooth/config::system-path": "/etc/bluetooth/common/main.conf",
    "/firmware::no-firmware": "True",
    "/modem::firmware-variant": "astronaut",
    "/power::touchpad-wakeup": "1",
    "/thermal::dptf-dv": "astronaut/dptf.dv",
    "/thermal::files": "[{'destination': '/etc/dptf/astronaut/dptf.dv', 'source': 'astronaut/thermal/dptf.dv'}]"
  },
  "GetProperty_babymega": {
    "/::name": "babymega",
    "/::test-label": "babymega",
    "/audio/main::cras-config-dir": "babymega",
    "/audio/main::files": "[{'destination': '/etc/cras/babymega/bxtda7219max', 'source': 'babymega/audio/cras-config/bxtda7219max'}, {'destination': '/etc/cras/babymega/dsp.ini', 'source': 'babymega/audio/cras-config/dsp.ini'}, {'destination': '/usr/share/alsa/ucm/bxtda7219max.1micBabymega/HiFi', 'source': 'babymega/audio/ucm-config/1mic/HiFi'}, {'destination': '/usr/share/alsa/ucm/bxtda7219max.1micBabymega/bxtda7219max.1micBabymega.conf', 'source': 'babymega/audio/ucm-config/1mic/bxtda7219max.conf'}]",
    "/audio/main::ucm-suffix": "1micBabymega",
    "/bluetooth/config::build-path": "common/bluetooth/main.conf",
    "/bluetooth/config::system-path": "/etc/bluetooth/common/main.conf",
    "/firmware::no-firmware": "True",
    "/power::touchpad-wakeup": "1",
    "/thermal::dptf-dv": "babymega/dptf.dv",
    "/thermal::files": "[{'destination': '/etc/dptf/babymega/dptf.dv', 'source': 'babymega/thermal/dptf.dv'}]"
  },
  "GetProperty_babytiger": {
    "/::name": "babytiger",
    "/::test-label": "babytiger",
    "/audio/main::cras-config-dir": "babytiger",
    "/audio/main::files": "[{'destination': '/etc/cras/babytiger/bxtda7219max', 'source': 'babytiger/audio/cras-config/bxtda7219max'}, {'destination': '/etc/cras/babytiger/dsp.ini', 'source': 'babytiger/audio/cras-config/dsp.ini'}, {'destination': '/usr/share/alsa/ucm/bxtda7219max.2micBabytiger/HiFi', 'source': 'babytiger/audio/ucm-config/2mic/HiFi'}, {'destination': '/usr/share/alsa/ucm/bxtda7219max.2micBabytiger/bxtda7219max.2micBabytiger.conf', 'source': 'babytiger/audio/ucm-config/2mic/bxtda7219max.conf'}]",
    "/audio/main::ucm-suffix": "2micBabytiger",
    "/bluetooth/config::build-path": "common/bluetooth/main.conf",
    "/bluetooth/config::system-path": "/etc/bluetooth/common/main.conf",
    "/firmware::no-firmware": "True",
    "/power::touchpad-wakeup": "1",
    "/thermal::dptf-dv": "babytiger/dptf.dv",
    "/thermal::files": "[{'destination': '/etc/dptf/babytiger/dptf.dv', 'source': 'babytiger/thermal/dptf.dv'}]"
  },
  "GetProperty_blacktip": {
    "/::name": "blacktip",
    "/::test-label": "blacktip",
    "/audio/main::cras-config-dir": "blacktip",
    "/audio/main::files": "[{'destination': '/etc/cras/blacktip/bxtda7219max', 'source': 'blacktip/audio/cras-config/bxtda7219max'}, {'destination': '/etc/cras/blacktip/dsp.ini', 'source': 'blacktip/audio/cras-config/dsp.ini'}, {'destination': '/usr/share/alsa/ucm/bxtda7219max.1mic/HiFi', 'source': 'common/audio/ucm-config/1mic/HiFi'}, {'destination': '/usr/share/alsa/ucm/bxtda7219max.1mic/bxtda7219max.1mic.conf', 'source': 'common/audio/ucm-config/1mic/bxtda7219max.conf'}]",
    "/audio/main::ucm-suffix": "1mic",
    "/bluetooth/config::build-path": "blacktip/bluetooth/main.conf",
    "/bluetooth/config::system-path": "/etc/bluetooth/blacktip/main.conf",
    "/firmware::no-firmware": "True",
    "/power::touchpad-wakeup": "1",
    "/thermal::dptf-dv": "astronaut/dptf.dv",
    "/thermal::files": "[{'destination': '/etc/dptf/astronaut/dptf.dv', 'source': 'astronaut/thermal/dptf.dv'}]"
  },
  "GetProperty_blacktip360": {
    "/::name": "blacktip360",
    "/::test-label": "blacktip360",
    "/audio/main::cras-config-dir": "blacktip360",
    "/audio/main::files": "[{'destination': '/etc/cras/blacktip360/bxtda7219max', 'source': 'blacktip360/audio/cras-config/bxtda7219max'}, {'destination': '/etc/cras/blacktip360/dsp.ini', 'source': 'blacktip360/audio/cras-config/dsp.ini'}, {'destination': '/usr/share/alsa/ucm/bxtda7219max.2mic/HiFi', 'source': 'common/audio/ucm-config/2mic/HiFi'}, {'destination': '/usr/share/alsa/ucm/bxtda7219max.2mic/bxtda7219max.2mic.conf', 'source': 'common/audio/ucm-config/2mic/bxtda7219max.conf'}]",
    "/audio/main::ucm-suffix": "2mic",
    "/bluetooth/config::build-path": "blacktip/bluetooth/main.conf",
    "/bluetooth/config::system-path": "/etc/bluetooth/blacktip/main.conf",
    "/firmware::no-firmware": "True",
    "/hardware-properties::has-base-accelerometer": "True",
    "/hardware-properties::has-base-gyroscope": "True",
    "/hardware-properties::has-lid-accelerometer": "True",
    "/hardware-properties::is-lid-convertible": "True",
    "/power::touchpad-wakeup": "0",
    "/thermal::dptf-dv": "astronaut/dptf.dv",
    "/thermal::files": "[{'destination': '/etc/dptf/astronaut/dptf.dv', 'source': 'astronaut/thermal/dptf.dv'}]"
  },
  "GetProperty_blacktiplte": {
    "/::name": "blacktiplte",
    "/::test-label": "blacktiplte",
    "/audio/main::cras-config-dir": "blacktiplte",
    "/audio/main::files": "[{'destination': '/etc/cras/blacktiplte/bxtda7219max', 'source': 'blacktiplte/audio/cras-config/bxtda7219max'}, {'destination': '/etc/cras/blacktiplte/dsp.ini', 'source': 'blacktiplte/audio/cras-config/dsp.ini'}, {'destination': '/usr/share/alsa/ucm/bxtda7219max.1mic/HiFi', 'source': 'common/audio/ucm-config/1mic/HiFi'}, {'destination': '/usr/share/alsa/ucm/bxtda7219max.1mic/bxtda7219max.1mic.conf', 'source': 'common/audio/ucm-config/1mic/bxtda7219max.conf'}]",
    "/audio/main::ucm-suffix": "1mic",
    "/bluetooth/config::build-path": "blacktip/bluetooth/main.conf",
    "/bluetooth/config::system-path": "/etc/bluetooth/blacktip/main.conf",
    "/firmware::no-firmware": "True",
    "/modem::firmware-variant": "blacktiplte",
    "/power::touchpad-wakeup": "1",
    "/thermal::dptf-dv": "astronaut/dptf.dv",
    "/thermal::files": "[{'destination': '/etc/dptf/astronaut/dptf.dv', 'source': 'astronaut/thermal/dptf.dv'}]"
  },
  "GetProperty_blue": {
    "/::name": "blue",
    "/::test-label": "blue",
    "/audio/main::cras-config-dir": "blue",
    "/audio/main::files": "[{'destination': '/etc/cras/blue/bxtda7219max', 'source': 'blue/audio/cras-config/bxtda7219max'}, {'destination': '/etc/cras/blue/dsp.ini', 'source': 'blue/audio/cras-config/dsp.ini'}, {'destination': '/usr/share/alsa/ucm/bxtda7219max.1mic/HiFi', 'source': 'common/audio/ucm-config/1mic/HiFi'}, {'destination': '/usr/share/alsa/ucm/bxtda7219max.1mic/bxtda7219max.1mic.conf', 'source': 'common/audio/ucm-config/1mic/bxtda7219max.conf'}]",
    "/audio/main::ucm-suffix": "1mic",
    "/bluetooth/config::build-path": "common/bluetooth/main.conf",
    "/bluetooth/config::system-path": "/etc/bluetooth/common/main.conf",
    "/firmware::no-firmware": "True",
    "/power::touchpad-wakeup": "1",
    "/thermal::dptf-dv": "astronaut/dptf.dv",
    "/thermal::files": "[{'destination': '/etc/dptf/astronaut/dptf.dv', 'source': 'astronaut/thermal/dptf.dv'}]"
  },
  "GetProperty_bruce": {
    "/::name": "bruce",
    "/::test-label": "bruce",
    "/audio/main::cras-config-dir": "bruce",
    "/audio/main::files": "[{'destination': '/etc/cras/bruce/bxtda7219max', 'source': 'bruce/audio/cras-config/bxtda7219max'}, {'destination': '/etc/cras/bruce/dsp.ini', 'source': 'bruce/audio/cras-config/dsp.ini'}, {'destination': '/usr/share/alsa/ucm/bxtda7219max.2micBruce360/HiFi', 'source': 'bruce/audio/ucm-config/2mic/HiFi'}, {'destination': '/usr/share/alsa/ucm/bxtda7219max.2micBruce360/bxtda7219max.2micBruce360.conf', 'source': 'bruce/audio/ucm-config/2mic/bxtda7219max.conf'}]",
    "/audio/main::ucm-suffix": "2micBruce360",
    "/bluetooth/config::build-path": "common/bluetooth/main.conf",
    "/bluetooth/config::system-path": "/etc/bluetooth/common/main.conf",
    "/firmware::no-firmware": "True",
    "/hardware-properties::has-base-accelerometer": "True",
    "/hardware-properties::has-base-gyroscope": "True",
    "/hardware-properties::has-lid-accelerometer": "True",
    "/hardware-properties::is-lid-convertible": "True",
    "/power::touchpad-wakeup": "0",
    "/thermal::dptf-dv": "common/dptf.dv",
    "/thermal::files": "[{'destination': '/etc/dptf/common/dptf.dv', 'source': 'common/thermal/dptf.dv'}]"
  },
  "GetProperty_epaulette": {
    "/::name": "epaulette",
    "/::test-label": "epaulette",
    "/audio/main::cras-config-dir": "epaulette",
    "/audio/main::files": "[{'destination': '/etc/cras/epaulette/bxtda7219max', 'source': 'epaulette/audio/cras-config/bxtda7219max'}, {'destination': '/etc/cras/epaulette/dsp.ini', 'source': 'epaulette/audio/cras-config/dsp.ini'}, {'destination': '/usr/share/alsa/ucm/bxtda7219max.2micEpaulette/HiFi', 'source': 'epaulette/audio/ucm-config/2mic/HiFi'}, {'destination': '/usr/share/alsa/ucm/bxtda7219max.2micEpaulette/bxtda7219max.2micEpaulette.conf', 'source': 'epaulette/audio/ucm-config/2mic/bxtda7219max.conf'}]",
    "/audio/main::ucm-suffix": "2micEpaulette",
    "/bluetooth/config::build-path": "common/bluetooth/main.conf",
    "/bluetooth/config::system-path": "/etc/bluetooth/common/main.conf",
    "/firmware::no-firmware": "True",
    "/power::touchpad-wakeup": "1",
    "/thermal::dptf-dv": "astronaut/dptf.dv",
    "/thermal::files": "[{'destination': '/etc/dptf/astronaut/dptf.dv', 'source': 'astronaut/thermal/dptf.dv'}]"
  },
  "GetProperty_lava": {
    "/::name": "lava",
    "/::test-label": "lava",
    "/audio/main::cras-config-dir": "lava",
    "/audio/main::files": "[{'destination': '/etc/cras/lava/bxtda7219max', 'source': 'lava/audio/cras-config/bxtda7219max'}, {'destination': '/etc/cras/lava/dsp.ini', 'source': 'lava/audio/cras-config/dsp.ini'}, {'destination': '/usr/share/alsa/ucm/bxtda7219max.1mic/HiFi', 'source': 'common/audio/ucm-config/1mic/HiFi'}, {'destination': '/usr/share/alsa/ucm/bxtda7219max.1mic/bxtda7219max.1mic.conf', 'source': 'common/audio/ucm-config/1mic/bxtda7219max.conf'}]",
    "/audio/main::ucm-suffix": "1mic",
    "/bluetooth/config::build-path": "common/bluetooth/main.conf",
    "/bluetooth/config::system-path": "/etc/bluetooth/common/main.conf",
    "/firmware::no-firmware": "True",
    "/hardware-properties::has-base-accelerometer": "True",
    "/hardware-properties::has-base-gyroscope": "True",
    "/hardware-properties::has-lid-accelerometer": "True",
    "/hardware-properties::is-lid-convertible": "True",
    "/power::touchpad-wakeup": "0",
    "/thermal::dptf-dv": "astronaut/dptf.dv",
    "/thermal::files": "[{'destination': '/etc/dptf/astronaut/dptf.dv', 'source': 'astronaut/thermal/dptf.dv'}]"
  },
  "GetProperty_nasher": {
    "/::name": "nasher",
    "/::test-label": "nasher",
    "/audio/main::cras-config-dir": "nasher",
    "/audio/main::files": "[{'destination': '/etc/cras/nasher/bxtda7219max', 'source': 'nasher/audio/cras-config/bxtda7219max'}, {'destination': '/etc/cras/nasher/dsp.ini', 'source': 'nasher/audio/cras-config/dsp.ini'}, {'destination': '/usr/share/alsa/ucm/bxtda7219max.nasher/HiFi', 'source': 'nasher/audio/ucm-config/HiFi'}, {'destination': '/usr/share/alsa/ucm/bxtda7219max.nasher/bxtda7219max.nasher.conf', 'source': 'nasher/audio/ucm-config/bxtda7219max.conf'}]",
    "/audio/main::ucm-suffix": "nasher",
    "/bluetooth/config::build-path": "common/bluetooth/main.conf",
    "/bluetooth/config::system-path": "/etc/bluetooth/common/main.conf",
    "/firmware::no-firmware": "True",
    "/power::touchpad-wakeup": "1",
    "/thermal::dptf-dv": "nasher/dptf.dv",
    "/thermal::files": "[{'destination': '/etc/dptf/nasher/dptf.dv', 'source': 'nasher/thermal/dptf.dv'}]"
  },
  "GetProperty_nasher360": {
    "/::name": "nasher360",
    "/::test-label": "nasher360",
    "/audio/main::cras-config-dir": "nasher",
    "/audio/main::files": "[{'destination': '/etc/cras/nasher/bxtda7219max', 'source': 'nasher/audio/cras-config/bxtda7219max'}, {'destination': '/etc/cras/nasher/dsp.ini', 'source': 'nasher/audio/cras-config/dsp.ini'}, {'destination': '/usr/share/alsa/ucm/bxtda7219max.2micNasher360/HiFi', 'source': 'nasher360/audio/ucm-config/2mic/HiFi'}, {'destination': '/usr/share/alsa/ucm/bxtda7219max.2micNasher360/bxtda7219max.2micNasher360.conf', 'source': 'nasher360/audio/ucm-config/2mic/bxtda7219max.conf'}]",
    "/audio/main::ucm-suffix": "2micNasher360",
    "/bluetooth/config::build-path": "common/bluetooth/main.conf",
    "/bluetooth/config::system-path": "/etc/bluetooth/common/main.conf",
    "/firmware::no-firmware": "True",
    "/hardware-properties::has-base-accelerometer": "True",
    "/hardware-properties::has-base-gyroscope": "True",
    "/hardware-properties::has-lid-accelerometer": "True",
    "/hardware-properties::is-lid-convertible": "True",
    "/power::touchpad-wakeup": "0",
    "/thermal::dptf-dv": "nasher/dptf.dv",
    "/thermal::files": "[{'destination': '/etc/dptf/nasher/dptf.dv', 'source': 'nasher/thermal/dptf.dv'}]"
  },
  "GetProperty_porbeagle": {
    "/::name": "porbeagle",
    "/::test-label": "porbeagle",
    "/audio/main::cras-config-dir": "astronaut",
    "/audio/main::files": "[{'destination': '/etc/cras/astronaut/bxtda7219max', 'source': 'astronaut/audio/cras-config/bxtda7219max'}, {'destination': '/etc/cras/astronaut/dsp.ini', 'source': 'astronaut/audio/cras-config/dsp.ini'}, {'destination': '/usr/share/alsa/ucm/bxtda7219max.1mic/HiFi', 'source': 'common/audio/ucm-config/1mic/HiFi'}, {'destination': '/usr/share/alsa/ucm/bxtda7219max.1mic/bxtda7219max.1mic.conf', 'source': 'common/audio/ucm-config/1mic/bxtda7219max.conf'}]",
    "/audio/main::ucm-suffix": "1mic",
    "/bluetooth/config::build-path": "common/bluetooth/main.conf",
    "/bluetooth/config::system-path": "/etc/bluetooth/common/main.conf",
    "/firmware::no-firmware": "True",
    "/power::touchpad-wakeup": "1",
    "/thermal::dptf-dv": "astronaut/dptf.dv",
    "/thermal::files": "[{'destination': '/etc/dptf/astronaut/dptf.dv', 'source': 'astronaut/thermal/dptf.dv'}]"
  },
  "GetProperty_rabbid": {
    "/::name": "rabbid",
    "/::test-label": "rabbid",
    "/audio/main::cras-config-dir": "rabbid",
    "/audio/main::files": "[{'destination': '/etc/cras/rabbid/bxtda7219max', 'source': 'rabbid/audio/cras-config/bxtda7219max'}, {'destination': '/etc/cras/rabbid/dsp.ini', 'source': 'rabbid/audio/cras-config/dsp.ini'}, {'destination': '/usr/share/alsa/ucm/bxtda7219max.2micRabbid/HiFi', 'source': 'rabbid/audio/ucm-config/2mic/HiFi'}, {'destination': '/usr/share/alsa/ucm/bxtda7219max.2micRabbid/bxtda7219max.2micRabbid.conf', 'source': 'rabbid/audio/ucm-config/2mic/bxtda7219max.conf'}]",
    "/audio/main::ucm-suffix": "2micRabbid",
    "/bluetooth/config::build-path": "common/bluetooth/main.conf",
    "/bluetooth/config::system-path": "/etc/bluetooth/common/main.conf",
    "/firmware::no-firmware": "True",
    "/power::touchpad-wakeup": "1",
    "/thermal::dptf-dv": "rabbid/dptf.dv",
    "/thermal::files": "[{'destination': '/etc/dptf/rabbid/dptf.dv', 'source': 'rabbid/thermal/dptf.dv'}]"
  },
  "GetProperty_robo": {
    "/::name": "robo",
    "/::test-label": "robo",
    "/audio/main::cras-config-dir": "robo",
    "/audio/main::files": "[{'destination': '/etc/cras/robo/bxtda7219max', 'source': 'robo/audio/cras-config/bxtda7219max'}, {'destination': '/etc/cras/robo/dsp.ini', 'source': 'robo/audio/cras-config/dsp.ini'}, {'destination': '/usr/share/alsa/ucm/bxtda7219max.1mic/HiFi', 'source': 'common/audio/ucm-config/1mic/HiFi'}, {'destination': '/usr/share/alsa/ucm/bxtda7219max.1mic/bxtda7219max.1mic.conf', 'source': 'common/audio/ucm-config/1mic/bxtda7219max.conf'}]",
    "/audio/main::ucm-suffix": "1mic",
    "/bluetooth/config::build-path": "common/bluetooth/main.conf",
    "/bluetooth/config::system-path": "/etc/bluetooth/common/main.conf",
    "/firmware::no-firmware": "True",
    "/power::touchpad-wakeup": "1",
    "/thermal::dptf-dv": "robo/dptf.dv",
    "/thermal::files": "[{'destination': '/etc/dptf/robo/dptf.dv', 'source': 'robo/thermal/dptf.dv'}]"
  },
  "GetProperty_robo360": {
    "/::name": "robo360",
    "/::test-label": "robo360",
    "/audio/main::cras-config-dir": "nasher",
    "/audio/main::files": "[{'destination': '/etc/cras/nasher/bxtda7219max', 'source': 'nasher/audio/cras-config/bxtda7219max'}, {'destination': '/etc/cras/nasher/dsp.ini', 'source': 'nasher/audio/cras-config/dsp.ini'}, {'destination': '/usr/share/alsa/ucm/bxtda7219max.robo360/HiFi', 'source': 'robo360/audio/ucm-config/HiFi'}, {'destination': '/usr/share/alsa/ucm/bxtda7219max.robo360/bxtda7219max.robo360.conf', 'source': 'robo360/audio/ucm-config/bxtda7219max.conf'}]",
    "/audio/main::ucm-suffix": "robo360",
    "/bluetooth/config::build-path": "common/bluetooth/main.conf",
    "/bluetooth/config::system-path": "/etc/bluetooth/common/main.conf",
    "/firmware::no-firmware": "True",
    "/hardware-properties::has-base-accelerometer": "True",
    "/hardware-properties::has-base-gyroscope": "True",
    "/hardware-properties::has-lid-accelerometer": "True",
    "/hardware-properties::is-lid-convertible": "True",
    "/power::touchpad-wakeup": "0",
    "/thermal::dptf-dv": "robo/dptf.dv",
    "/thermal::files": "[{'destination': '/etc/dptf/robo/dptf.dv', 'source': 'robo/thermal/dptf.dv'}]"
  },
  "GetProperty_santa": {
    "/::name": "santa",
    "/::test-label": "santa",
    "/audio/main::cras-config-dir": "astronaut",
    "/audio/main::files": "[{'destination': '/etc/cras/astronaut/bxtda7219max', 'source': 'astronaut/audio/cras-config/bxtda7219max'}, {'destination': '/etc/cras/astronaut/dsp.ini', 'source': 'astronaut/audio/cras-config/dsp.ini'}, {'destination': '/usr/share/alsa/ucm/bxtda7219max.1mic/HiFi', 'source': 'common/audio/ucm-config/1mic/HiFi'}, {'destination': '/usr/share/alsa/ucm/bxtda7219max.1mic/bxtda7219max.1mic.conf', 'source': 'common/audio/ucm-config/1mic/bxtda7219max.conf'}]",
    "/audio/main::ucm-suffix": "1mic",
    "/bluetooth/config::build-path": "common/bluetooth/main.conf",
    "/bluetooth/config::system-path": "/etc/bluetooth/common/main.conf",
    "/firmware::no-firmware": "True",
    "/power::touchpad-wakeup": "1",
    "/thermal::dptf-dv": "astronaut/dptf.dv",
    "/thermal::files": "[{'destination': '/etc/dptf/astronaut/dptf.dv', 'source': 'astronaut/thermal/dptf.dv'}]"
  },
  "GetProperty_whitetip": {
    "/::name": "whitetip",
    "/::test-label": "robo",
    "/audio/main::cras-config-dir": "whitetip",
    "/audio/main::files": "[{'destination': '/etc/cras/whitetip/bxtda7219max', 'source': 'whitetip/audio/cras-config/bxtda7219max'}, {'destination': '/etc/cras/whitetip/dsp.ini', 'source': 'whitetip/audio/cras-config/dsp.ini'}, {'destination': '/usr/share/alsa/ucm/bxtda7219max.1mic/HiFi', 'source': 'common/audio/ucm-config/1mic/HiFi'}, {'destination': '/usr/share/alsa/ucm/bxtda7219max.1mic/bxtda7219max.1mic.conf', 'source': 'common/audio/ucm-config/1mic/bxtda7219max.conf'}]",
    "/audio/main::ucm-suffix": "1mic",
    "/bluetooth/config::build-path": "common/bluetooth/main.conf",
    "/bluetooth/config::system-path": "/etc/bluetooth/common/main.conf",
    "/firmware::no-firmware": "True",
    "/power::touchpad-wakeup": "1",
    "/thermal::dptf-dv": "whitetip/dptf.dv",
    "/thermal::files": "[{'destination': '/etc/dptf/whitetip/dptf.dv', 'source': 'whitetip/thermal/dptf.dv'}]"
  },
  "GetThermalFiles": [
    [
      "astronaut/thermal/dptf.dv",
      "/etc/dptf/astronaut/dptf.dv"
    ],
    [
      "babymega/thermal/dptf.dv",
      "/etc/dptf/babymega/dptf.dv"
    ],
    [
      "babytiger/thermal/dptf.dv",
      "/etc/dptf/babytiger/dptf.dv"
    ],
    [
      "common/thermal/dptf.dv",
      "/etc/dptf/common/dptf.dv"
    ],
    [
      "nasher/thermal/dptf.dv",
      "/etc/dptf/nasher/dptf.dv"
    ],
    [
      "rabbid/thermal/dptf.dv",
      "/etc/dptf/rabbid/dptf.dv"
    ],
    [
      "robo/thermal/dptf.dv",
      "/etc/dptf/robo/dptf.dv"
    ],
    [
      "whitetip/thermal/dptf.dv",
      "/etc/dptf/whitetip/dptf.dv"
    ]
  ],
  "GetTouchFirmwareFiles": [],
  "GetWallpaperFiles": [],
  "ListModels": [
    "astronaut",
    "babymega",
    "babytiger",
    "blacktip",
    "blacktip360",
    "blacktiplte",
    "blue",
    "bruce",
    "epaulette",
    "lava",
    "nasher",
    "nasher360",
    "porbeagle",
    "rabbid",
    "robo",
    "robo360",
    "santa",
    "whitetip"
  ]
}
